{%
<!--
							{% for link in linklists[settings.main_linklist].links %}
							{% if linklists[link.handle] == empty %}
							<li {% if link.active %}class="active"{% endif %}><a href="{{ link.url }}" title="{{ link.title }}" >{{ link.title }}</a></li>
							{% else %}
							<li>
								<a href="{{ link.url }}" title="{{ link.title }}" {% if link.active %}class="active"{% endif %} {% for link in linklists[link.handle].links %}{% if link.active %}class="active"{% endif %}{% endfor %}>{{ link.title }} 
								<span class="arrow">&or;</span></a> 
								<ul>
									{% for link in linklists[link.handle].links %}
									{% if linklists[link.handle] == empty %}
									<li><a href="{{ link.url }}" title="{{ link.title }}">{{ link.title }}</a></li>
									{% else %}
									<li>
										<a href="{{ link.url }}" title="{{ link.title }}">{{ link.title }} <span class="arrow"> &rang;</span></a> 
										<ul>
											{% for link in linklists[link.handle].links %}
											<li><a href="{{ link.url }}" title="{{ link.title }}">{{ link.title }}</a></li>
											{% endfor %}
										</ul>
									</li>
									{% endif %}
									{% endfor %}
								</ul>
							</li>
							{% endif %}
							{% endfor %}
-->
%}
